{"frames": {

"Fish2_01.png":
{
	"frame": {"x":1,"y":1,"w":443,"h":205},
	"rotated": false,
	"trimmed": false,
	"spriteSourceSize": {"x":0,"y":0,"w":443,"h":205},
	"sourceSize": {"w":443,"h":205}
},
"Fish2_02.png":
{
	"frame": {"x":446,"y":1,"w":443,"h":204},
	"rotated": false,
	"trimmed": false,
	"spriteSourceSize": {"x":0,"y":0,"w":443,"h":204},
	"sourceSize": {"w":443,"h":204}
},
"Fish2_03.png":
{
	"frame": {"x":891,"y":205,"w":443,"h":202},
	"rotated": false,
	"trimmed": false,
	"spriteSourceSize": {"x":0,"y":0,"w":443,"h":202},
	"sourceSize": {"w":443,"h":202}
},
"Fish2_04.png":
{
	"frame": {"x":446,"y":207,"w":443,"h":202},
	"rotated": false,
	"trimmed": false,
	"spriteSourceSize": {"x":0,"y":0,"w":443,"h":202},
	"sourceSize": {"w":443,"h":202}
},
"Fish2_05.png":
{
	"frame": {"x":1,"y":208,"w":443,"h":202},
	"rotated": false,
	"trimmed": false,
	"spriteSourceSize": {"x":0,"y":0,"w":443,"h":202},
	"sourceSize": {"w":443,"h":202}
},
"Fish2_06.png":
{
	"frame": {"x":1336,"y":205,"w":443,"h":201},
	"rotated": false,
	"trimmed": false,
	"spriteSourceSize": {"x":0,"y":0,"w":443,"h":201},
	"sourceSize": {"w":443,"h":201}
},
"Fish2_07.png":
{
	"frame": {"x":446,"y":411,"w":443,"h":200},
	"rotated": false,
	"trimmed": false,
	"spriteSourceSize": {"x":0,"y":0,"w":443,"h":200},
	"sourceSize": {"w":443,"h":200}
},
"Fish2_08.png":
{
	"frame": {"x":891,"y":611,"w":443,"h":200},
	"rotated": false,
	"trimmed": false,
	"spriteSourceSize": {"x":0,"y":0,"w":443,"h":200},
	"sourceSize": {"w":443,"h":200}
},
"Fish2_09.png":
{
	"frame": {"x":446,"y":813,"w":443,"h":198},
	"rotated": false,
	"trimmed": false,
	"spriteSourceSize": {"x":0,"y":0,"w":443,"h":198},
	"sourceSize": {"w":443,"h":198}
},
"Fish2_10.png":
{
	"frame": {"x":891,"y":813,"w":443,"h":198},
	"rotated": false,
	"trimmed": false,
	"spriteSourceSize": {"x":0,"y":0,"w":443,"h":198},
	"sourceSize": {"w":443,"h":198}
},
"Fish2_11.png":
{
	"frame": {"x":1336,"y":408,"w":443,"h":200},
	"rotated": false,
	"trimmed": false,
	"spriteSourceSize": {"x":0,"y":0,"w":443,"h":200},
	"sourceSize": {"w":443,"h":200}
},
"Fish2_12.png":
{
	"frame": {"x":1,"y":1013,"w":443,"h":197},
	"rotated": false,
	"trimmed": false,
	"spriteSourceSize": {"x":0,"y":0,"w":443,"h":197},
	"sourceSize": {"w":443,"h":197}
},
"Fish2_13.png":
{
	"frame": {"x":1,"y":412,"w":443,"h":198},
	"rotated": false,
	"trimmed": false,
	"spriteSourceSize": {"x":0,"y":0,"w":443,"h":198},
	"sourceSize": {"w":443,"h":198}
},
"Fish2_14.png":
{
	"frame": {"x":1,"y":612,"w":443,"h":198},
	"rotated": false,
	"trimmed": false,
	"spriteSourceSize": {"x":0,"y":0,"w":443,"h":198},
	"sourceSize": {"w":443,"h":198}
},
"Fish2_15.png":
{
	"frame": {"x":446,"y":1013,"w":443,"h":197},
	"rotated": false,
	"trimmed": false,
	"spriteSourceSize": {"x":0,"y":0,"w":443,"h":197},
	"sourceSize": {"w":443,"h":197}
},
"Fish2_16.png":
{
	"frame": {"x":891,"y":1013,"w":443,"h":197},
	"rotated": false,
	"trimmed": false,
	"spriteSourceSize": {"x":0,"y":0,"w":443,"h":197},
	"sourceSize": {"w":443,"h":197}
},
"Fish2_17.png":
{
	"frame": {"x":446,"y":613,"w":443,"h":198},
	"rotated": false,
	"trimmed": false,
	"spriteSourceSize": {"x":0,"y":0,"w":443,"h":198},
	"sourceSize": {"w":443,"h":198}
},
"Fish2_18.png":
{
	"frame": {"x":1,"y":812,"w":443,"h":198},
	"rotated": false,
	"trimmed": false,
	"spriteSourceSize": {"x":0,"y":0,"w":443,"h":198},
	"sourceSize": {"w":443,"h":198}
},
"Fish2_19.png":
{
	"frame": {"x":891,"y":409,"w":443,"h":200},
	"rotated": false,
	"trimmed": false,
	"spriteSourceSize": {"x":0,"y":0,"w":443,"h":200},
	"sourceSize": {"w":443,"h":200}
},
"Fish2_20.png":
{
	"frame": {"x":1336,"y":1013,"w":443,"h":197},
	"rotated": false,
	"trimmed": false,
	"spriteSourceSize": {"x":0,"y":0,"w":443,"h":197},
	"sourceSize": {"w":443,"h":197}
},
"Fish2_21.png":
{
	"frame": {"x":1336,"y":812,"w":443,"h":199},
	"rotated": false,
	"trimmed": false,
	"spriteSourceSize": {"x":0,"y":0,"w":443,"h":199},
	"sourceSize": {"w":443,"h":199}
},
"Fish2_22.png":
{
	"frame": {"x":1336,"y":610,"w":443,"h":200},
	"rotated": false,
	"trimmed": false,
	"spriteSourceSize": {"x":0,"y":0,"w":443,"h":200},
	"sourceSize": {"w":443,"h":200}
},
"Fish2_23.png":
{
	"frame": {"x":891,"y":1,"w":443,"h":202},
	"rotated": false,
	"trimmed": false,
	"spriteSourceSize": {"x":0,"y":0,"w":443,"h":202},
	"sourceSize": {"w":443,"h":202}
},
"Fish2_24.png":
{
	"frame": {"x":1336,"y":1,"w":443,"h":202},
	"rotated": false,
	"trimmed": false,
	"spriteSourceSize": {"x":0,"y":0,"w":443,"h":202},
	"sourceSize": {"w":443,"h":202}
}},
"meta": {
	"app": "http://www.codeandweb.com/texturepacker",
	"version": "1.0",
	"image": "fish2.png",
	"format": "RGBA8888",
	"size": {"w":1780,"h":1211},
	"scale": "1",
	"smartupdate": "$TexturePacker:SmartUpdate:cc5fdefdf9b7bcdbb354ec9ccd13b1fe:526000c5d4143b1d519a63727b8d3c4d:b18caa4696782441b8c03eb6686d6b0c$"
}
}
