{"frames": {

"Fish5_01.png":
{
	"frame": {"x":1,"y":1,"w":481,"h":226},
	"rotated": false,
	"trimmed": false,
	"spriteSourceSize": {"x":0,"y":0,"w":481,"h":226},
	"sourceSize": {"w":481,"h":226}
},
"Fish5_02.png":
{
	"frame": {"x":484,"y":685,"w":481,"h":226},
	"rotated": false,
	"trimmed": false,
	"spriteSourceSize": {"x":0,"y":0,"w":481,"h":226},
	"sourceSize": {"w":481,"h":226}
},
"Fish5_03.png":
{
	"frame": {"x":967,"y":229,"w":481,"h":226},
	"rotated": false,
	"trimmed": false,
	"spriteSourceSize": {"x":0,"y":0,"w":481,"h":226},
	"sourceSize": {"w":481,"h":226}
},
"Fish5_04.png":
{
	"frame": {"x":967,"y":457,"w":481,"h":226},
	"rotated": false,
	"trimmed": false,
	"spriteSourceSize": {"x":0,"y":0,"w":481,"h":226},
	"sourceSize": {"w":481,"h":226}
},
"Fish5_05.png":
{
	"frame": {"x":967,"y":685,"w":481,"h":226},
	"rotated": false,
	"trimmed": false,
	"spriteSourceSize": {"x":0,"y":0,"w":481,"h":226},
	"sourceSize": {"w":481,"h":226}
},
"Fish5_06.png":
{
	"frame": {"x":967,"y":913,"w":481,"h":226},
	"rotated": false,
	"trimmed": false,
	"spriteSourceSize": {"x":0,"y":0,"w":481,"h":226},
	"sourceSize": {"w":481,"h":226}
},
"Fish5_07.png":
{
	"frame": {"x":967,"y":1141,"w":481,"h":226},
	"rotated": false,
	"trimmed": false,
	"spriteSourceSize": {"x":0,"y":0,"w":481,"h":226},
	"sourceSize": {"w":481,"h":226}
},
"Fish5_08.png":
{
	"frame": {"x":967,"y":1369,"w":481,"h":226},
	"rotated": false,
	"trimmed": false,
	"spriteSourceSize": {"x":0,"y":0,"w":481,"h":226},
	"sourceSize": {"w":481,"h":226}
},
"Fish5_09.png":
{
	"frame": {"x":967,"y":1597,"w":481,"h":226},
	"rotated": false,
	"trimmed": false,
	"spriteSourceSize": {"x":0,"y":0,"w":481,"h":226},
	"sourceSize": {"w":481,"h":226}
},
"Fish5_10.png":
{
	"frame": {"x":1,"y":229,"w":481,"h":226},
	"rotated": false,
	"trimmed": false,
	"spriteSourceSize": {"x":0,"y":0,"w":481,"h":226},
	"sourceSize": {"w":481,"h":226}
},
"Fish5_11.png":
{
	"frame": {"x":1,"y":457,"w":481,"h":226},
	"rotated": false,
	"trimmed": false,
	"spriteSourceSize": {"x":0,"y":0,"w":481,"h":226},
	"sourceSize": {"w":481,"h":226}
},
"Fish5_12.png":
{
	"frame": {"x":1,"y":685,"w":481,"h":226},
	"rotated": false,
	"trimmed": false,
	"spriteSourceSize": {"x":0,"y":0,"w":481,"h":226},
	"sourceSize": {"w":481,"h":226}
},
"Fish5_13.png":
{
	"frame": {"x":1,"y":913,"w":481,"h":226},
	"rotated": false,
	"trimmed": false,
	"spriteSourceSize": {"x":0,"y":0,"w":481,"h":226},
	"sourceSize": {"w":481,"h":226}
},
"Fish5_14.png":
{
	"frame": {"x":1,"y":1141,"w":481,"h":226},
	"rotated": false,
	"trimmed": false,
	"spriteSourceSize": {"x":0,"y":0,"w":481,"h":226},
	"sourceSize": {"w":481,"h":226}
},
"Fish5_15.png":
{
	"frame": {"x":1,"y":1369,"w":481,"h":226},
	"rotated": false,
	"trimmed": false,
	"spriteSourceSize": {"x":0,"y":0,"w":481,"h":226},
	"sourceSize": {"w":481,"h":226}
},
"Fish5_16.png":
{
	"frame": {"x":1,"y":1597,"w":481,"h":226},
	"rotated": false,
	"trimmed": false,
	"spriteSourceSize": {"x":0,"y":0,"w":481,"h":226},
	"sourceSize": {"w":481,"h":226}
},
"Fish5_17.png":
{
	"frame": {"x":484,"y":1,"w":481,"h":226},
	"rotated": false,
	"trimmed": false,
	"spriteSourceSize": {"x":0,"y":0,"w":481,"h":226},
	"sourceSize": {"w":481,"h":226}
},
"Fish5_18.png":
{
	"frame": {"x":484,"y":229,"w":481,"h":226},
	"rotated": false,
	"trimmed": false,
	"spriteSourceSize": {"x":0,"y":0,"w":481,"h":226},
	"sourceSize": {"w":481,"h":226}
},
"Fish5_19.png":
{
	"frame": {"x":484,"y":457,"w":481,"h":226},
	"rotated": false,
	"trimmed": false,
	"spriteSourceSize": {"x":0,"y":0,"w":481,"h":226},
	"sourceSize": {"w":481,"h":226}
},
"Fish5_20.png":
{
	"frame": {"x":484,"y":913,"w":481,"h":226},
	"rotated": false,
	"trimmed": false,
	"spriteSourceSize": {"x":0,"y":0,"w":481,"h":226},
	"sourceSize": {"w":481,"h":226}
},
"Fish5_21.png":
{
	"frame": {"x":484,"y":1141,"w":481,"h":226},
	"rotated": false,
	"trimmed": false,
	"spriteSourceSize": {"x":0,"y":0,"w":481,"h":226},
	"sourceSize": {"w":481,"h":226}
},
"Fish5_22.png":
{
	"frame": {"x":484,"y":1369,"w":481,"h":226},
	"rotated": false,
	"trimmed": false,
	"spriteSourceSize": {"x":0,"y":0,"w":481,"h":226},
	"sourceSize": {"w":481,"h":226}
},
"Fish5_23.png":
{
	"frame": {"x":484,"y":1597,"w":481,"h":226},
	"rotated": false,
	"trimmed": false,
	"spriteSourceSize": {"x":0,"y":0,"w":481,"h":226},
	"sourceSize": {"w":481,"h":226}
},
"Fish5_24.png":
{
	"frame": {"x":967,"y":1,"w":481,"h":226},
	"rotated": false,
	"trimmed": false,
	"spriteSourceSize": {"x":0,"y":0,"w":481,"h":226},
	"sourceSize": {"w":481,"h":226}
}},
"meta": {
	"app": "http://www.codeandweb.com/texturepacker",
	"version": "1.0",
	"image": "fish5.png",
	"format": "RGBA8888",
	"size": {"w":1449,"h":1824},
	"scale": "1",
	"smartupdate": "$TexturePacker:SmartUpdate:d2ebe96c6395608f44e7ddff10e3ba52:b4c0f08f4c19fde92fd8233ab32568e1:02bf1b401af24b1780bbf395e5f0442d$"
}
}
